"label",186,20,"",3,16,"w","Sensor Inputs:"
"text",140,30,"",2,"white","solid","black","","","","","Analog Input  1"
"text",140,50,"",3,"white","solid","black","","","","","Analog Input  2"
"text",140,70,"",4,"white","solid","black","","","","","Analog Input  3"
"text",140,90,"",5,"white","solid","black","","","","","Analog Input  4"
"label",186,130,"",3,16,"w","Analog Outputs:"
"text",140,140,"",10,"yellow","solid","black","","","","","Light Bulb"
"label",362,20,"",3,16,"w","Discrete Inputs:"
"light",350,30,"",57,10,10,"lightgreen","green","User Switch Left"
"light",350,50,"",56,10,10,"lightgreen","green","User Switch Right"
"label",542,20,"",3,16,"w","Discrete Outputs:"
"light",530,30,"",89,10,10,"lightblue","blue","LED 1"
"light",530,50,"",88,10,10,"lightblue","blue","LED 2"
"light",530,70,"",87,10,10,"lightblue","blue","LED 3"
"light",530,90,"",86,10,10,"lightblue","blue","LED 4"
"light",530,110,"",85,10,10,"lightblue","blue","GUI Button"
"label",722,20,"",3,16,"w","State Variables:"
"light",710,30,"",104,10,10,"lightgrey","grey","~Active Switch"
"label",936,20,"",3,16,"w","Variables:"
"text",890,30,"",105,"lightgray","solid","black","","","","","Timer 1"
"text",890,50,"",106,"lightgray","solid","black","","","","","Brief Delay"
