"text", 302, 181, "", 3, "white", "solid", "black", "", "", "", "", "Output"
"text", 303, 345, "", 4, "white", "solid", "black", "", "", "", "", "In"
"text", 361, 531, "", 5, "white", "solid", "black", "", "", "", "", "Return Manifold"
"text", 883, 434, "", 14, "white", "solid", "black", "", "", "", "", ""
"text", 27, 195, "", 6, "white", "solid", "black", "", "", "", "", ""
"text", 28, 229, "", 7, "white", "solid", "black", "", "", "", "", ""
"text", 28, 277, "", 8, "white", "solid", "black", "", "", "", "", ""
"text", 32, 317, "", 9, "white", "solid", "black", "", "", "", "", ""
"text", 32, 401, "", 15, "white", "solid", "black", "", "", "", "", ""
"text", 108, 173, "", 16, "white", "solid", "black", "", "", "", "", ""
"text", 140, 285, "", 10, "yellow", "solid", "black", "", "", "", "", ""
"light", 247, 55, "", 56, 10, 10, "lightgreen", "green", "User Switch Down"
"light", 247, 75, "", 57, 10, 10, "lightgreen", "green", "User Switch Up"
"light", 247, 95, "", 26, 10, 10, "lightgreen", "green", "Wood FUEL Signal"
"light", 298, 453, "", 27, 10, 10, "lightgreen", "green", ""
"light", 246, 115, "", 28, 10, 10, "lightgreen", "green", "Heat Demand"
"light", 557, 317, "", 29, 10, 10, "lightgreen", "green", "Demand"
"light", 605, 316, "", 30, 10, 10, "lightgreen", "green", ""
"light", 428, 55, "", 58, 10, 10, "lightblue", "blue", "Storage HI Rate Charge"
"light", 428, 75, "", 59, 10, 10, "lightblue", "blue", "Storage LO Rate Charge"
"light", 428, 95, "", 60, 10, 10, "lightblue", "blue", "Oil Control"
"light", 428, 115, "", 61, 10, 10, "lightblue", "blue", "Storage Charge"
"light", 805, 267, "", 62, 10, 10, "lightblue", "blue", "Control"
"light", 428, 135, "", 63, 10, 10, "lightblue", "blue", "SYS2000 Zones Disable"
"light", 606, 337, "", 64, 10, 10, "lightblue", "blue", ""
"light", 557, 338, "", 65, 10, 10, "lightblue", "blue", "Control"
"light", 78, 377, "", 66, 10, 10, "lightblue", "blue", ""
"light", 87, 568, "", 86, 10, 10, "lightblue", "blue", "Charging"
"light", 96, 115, "", 87, 10, 10, "lightblue", "blue", "Purge Mode"
"light", 96, 55, "", 88, 10, 10, "lightblue", "blue", "Wood Mode"
"light", 96, 75, "", 89, 10, 10, "lightblue", "blue", "Storage Mode"
"light", 86, 602, "", 85, 10, 10, "lightblue", "blue", "Alarm"
"light", 172, 270, "", 105, 10, 10, "lightgrey", "grey", "Enabled"
"light", 86, 482, "", 131, 10, 10, "lightgrey", "grey", "Full"
"light", 86, 500, "", 115, 10, 10, "lightgrey", "grey", "75%"
"light", 86, 516, "", 114, 10, 10, "lightgrey", "grey", "50%"
"light", 86, 533, "", 113, 10, 10, "lightgrey", "grey", "25%"
"light", 86, 433, "", 136, 10, 10, "lightgrey", "grey", "Capable"
"light", 86, 448, "", 117, 10, 10, "lightgrey", "grey", "Usable"
"light", 86, 465, "", 141, 10, 10, "lightgrey", "grey", "Caution"
"light", 636, 115, "", 125, 10, 10, "lightgrey", "grey", "~Heat Demand Override Delay"
"light", 636, 135, "", 124, 10, 10, "lightgrey", "grey", "~Heat Demand Override"
"light", 86, 584, "", 123, 10, 10, "lightgrey", "grey", "Warm"
"light", 934, 301, "", 110, 10, 10, "lightgrey", "grey", "Storage Demand"
"light", 87, 550, "", 118, 10, 10, "lightgrey", "grey", "Depleted"
"light", 934, 348, "", 109, 10, 10, "lightgrey", "grey", "Max"
"light", 934, 332, "", 140, 10, 10, "lightgrey", "grey", "Too Low"
"light", 934, 316, "", 135, 10, 10, "lightgrey", "grey", "Capable"
"light", 892, 465, "", 108, 10, 10, "lightgrey", "grey", "Disable"
"light", 490, 247, "", 107, 10, 10, "lightgrey", "grey", "Disable"
"light", 96, 95, "", 120, 10, 10, "lightgrey", "grey", "Oil Mode"
"light", 288, 202, "", 116, 10, 10, "lightgrey", "grey", "Very Hot"
"light", 308, 367, "", 106, 10, 10, "lightgrey", "grey", "Hot"
"light", 308, 384, "", 142, 10, 10, "lightgrey", "grey", "Cold"
"light", 308, 403, "", 137, 10, 10, "lightgrey", "grey", "Within Range"
"light", 636, 95, "", 111, 10, 10, "lightgrey", "grey", "~Force Purge"
"light", 354, 611, "", 146, 10, 10, "lightgrey", "grey", "~Heat Demand"
"light", 636, 55, "", 112, 10, 10, "lightgrey", "grey", "~Thermostat Control"
"light", 636, 75, "", 104, 10, 10, "lightgrey", "grey", "~Warning"
"text", 871, 40, "", 126, "lightgray", "solid", "black", "", "", "", "", "Fire Start Timer"
"text", 871, 60, "", 144, "lightgray", "solid", "black", "", "", "", "", "Storage Discharge Timer"
"text", 871, 80, "", 145, "lightgray", "solid", "black", "", "", "", "", "Zone Delay Timer"
"text", 325, 261, "", 122, "lightgray", "solid", "black", "", "", "", "", "Delta T"
"text", 871, 120, "", 119, "lightgray", "solid", "black", "", "", "", "", "Charge Target"
"text", 112, 335, "", 121, "lightgray", "solid", "black", "", "", "", "", "Discharge Delta T"
"text", 78, 149, "", 127, "lightgray", "solid", "black", "", "", "", "", "Tank Delta T"
"text", 871, 100, "", 128, "lightgray", "solid", "black", "", "", "", "", "Charge Nominal"
"text", 871, 140, "", 129, "lightgray", "solid", "black", "", "", "", "", "Charge Rate"
"text", 321, 569, "", 130, "lightgray", "solid", "black", "", "", "", "", "Wood Boiler Outlet"
"text", 321, 592, "", 132, "lightgray", "solid", "black", "", "", "", "", "Wood Boiler IN"
