"Name","Handler","channel_type","channels","io_per_channel"
1,"TS9700 Analog In",1,1,0,"analog_in",8,1
2,"TS9700 Analog Out",1,2,0,"analog_out",4,1
3,"TS9700 Analog In",1,1,1,"analog_in",8,1
4,"TS9700 Analog Out",1,2,1,"analog_out",4,1
5,"DIO64 Discrete In",1,3,0,"discrete_in",4,8
6,"DIO64 Discrete Out",1,4,0,"discrete_out",4,8
7,"1 Wire Temp Sensors",6,5,0,"analog_in",8,1
8,"Variables",0,0,0,"variable",96,1

