"dial", 61, 64, "192.168.1.40", 4, 100, 100, -50, 360, "red", 50, "yellow", 120, "green", ""
"dial", 198, 64, "192.168.1.40", 18, 100, 100, 90, 170, "blue", 105, "yellow", 115, "green", ""
"dial", 337, 64, "192.168.1.40", 7, 100, 100, 50, 1500, "yellow", 700, "green", 1200, "red", ""
"dial", 485, 62, "192.168.1.40", 8, 50, 50, 50, 700, "yellow", 350, "green", 550, "red", "Flue"
"dial", 578, 62, "192.168.1.40", 2, 50, 50, 120, 200, "yellow", 160, "green", 190, "red", "Outlet"
"dial", 485, 152, "192.168.1.40", 19, 50, 50, -25, 100, "lightblue", 32, "lightblue", 85, "lightblue", "Outdoor"
"dial", 578, 151, "192.168.1.40", 17, 50, 50, 50, 200, "yellow", 120, "green", 180, "red", "Solar"
"light", 133, 214, "192.168.1.40", 86, 12, 12, "lightgrey", "red", "Oil"
"light", 133, 234, "192.168.1.40", 87, 12, 12, "lightgrey", "red", "Wood"
"light", 133, 254, "192.168.1.40", 88, 12, 12, "lightgrey", "red", "Storage"
"light", 133, 274, "192.168.1.40", 89, 12, 12, "lightgrey", "red", "Solar"
"light", 286, 214, "192.168.1.40", 28, 10, 10, "lightgrey", "red", "Hot Tub Priority"
"set", 380, 235, "192.168.1.40", 105, "white", "solid", "blue"
"set", 380, 210, "192.168.1.40", 104, "white", "solid", "blue",0,"white",10,"white","Top Floor Set"
"set", 380, 260, "192.168.1.40", 106, "white", "solid", "blue"
"text", 813, 214, "192.168.1.40", 16, "blue", "solid", "black",120,"yellow",135,"orange"
"text", 813, 298, "192.168.1.40", 15, "white", "solid", "black"
"text", 813, 369, "192.168.1.40", 14, "white", "solid", "black"
